[
  {
    "name": "McKee",
    "owner": "Kevin McKee",
    "order": 10,
    "image": "https://s.yimg.com/cv/apiv2/default/nfl/nfl_8.png",
    "players": []
  },
  {
    "name": "Hurd Immunity",
    "owner": "Chris Hurd",
    "order": 4,
    "image": "https://yahoofantasysports-res.cloudinary.com/image/upload/t_s90sq/fantasy-logos/37177634925_708c90.jpg",
    "players": []
  },
  {
    "name": "Matt B's Squad",
    "owner": "Matt Boedeker",
    "order": 9,
    "image": "https://s.yimg.com/cv/apiv2/default/nfl/nfl_7.png",
    "players": []
  },
  {
    "name": "Michael's Dandy Team",
    "owner": "Michael Goloweyco",
    "order": 5,
    "image": "https://s.yimg.com/cv/apiv2/default/nfl/nfl_4.png",
    "players": []
  },
  {
    "name": " 4th and Goal",
    "owner": "Zsolt Csernatoni",
    "order": 8,
    "image": "https://yahoofantasysports-res.cloudinary.com/image/upload/t_s192sq/fantasy-logos/57359141304_dc3c7c.jpg",
    "players": []
  },
  {
    "name": "Acknowledge US",
    "owner": "Timmy",
    "order": 3,
    "image": "https://yahoofantasysports-res.cloudinary.com/image/upload/t_s192sq/fantasy-logos/c2511611b4a5bdbbfc9ca50c35d8e7106d7df4baa67963ccd8b1a29c18566e47.jpg",
    "players": []
  },
  {
    "name": " Jeff's Great Team",
    "owner": "Jeff Hiller",
    "order": 2,
    "image": "https://s.yimg.com/cv/apiv2/default/nfl/nfl_8.png",
    "players": []
  },
  {
    "name": "Deshaun's Towel Trick",
    "owner": "Shane Beliveau",
    "order": 7,
    "image": "https://yahoofantasysports-res.cloudinary.com/image/upload/t_s192sq/fantasy-logos/c1fd9528a8ccf8667b2e42e4018b6d9874dfe878870ab10fcae2dde1d2e25870.png",
    "players": []
  },  
  {
    "name": " NoKneelers",
    "owner": "Nick Bloom",
    "order": 1,
    "image": "https://s.yimg.com/cv/apiv2/default/nfl/nfl_4.png",
    "players": []
  },
  {
    "name": " Get Cooked!",
    "owner": "Levente Csernatoni",
    "order": 6,
    "image": "https://yahoofantasysports-res.cloudinary.com/image/upload/t_s90sq/fantasy-logos/25214459712_27a4785f68.jpg",
    "players": []
  }
]